Розрахункова робота №2
…
mw <- movie_weekend %>% 
  filter(WEEKEND_DATE >= as.Date("2000-01-01")) %>%
  select(MOVIE, WEEKEND_DATE, WEEKEND_PER_THEATER) %>%
  group_by(MOVIE) %>%
  summarise(MOVIE, week_total = cumsum(WEEKEND_PER_THEATER), week = WEEKEND_DATE)
mw

## # A tibble: 656 x 3
## # Groups:   MOVIE [36]
##    MOVIE            week_total week      
##    <chr>                 <int> <date>    
##  1 A Beautiful Mind        701 2001-12-21
##  2 A Beautiful Mind      15521 2001-12-28
##  3 A Beautiful Mind      24461 2002-01-04
##  4 A Beautiful Mind      31311 2002-01-11
##  5 A Beautiful Mind      36591 2002-01-18
##  6 A Beautiful Mind      41746 2002-01-25
##  7 A Beautiful Mind      45481 2002-02-01
##  8 A Beautiful Mind      48321 2002-02-08
##  9 A Beautiful Mind      52211 2002-02-15
## 10 A Beautiful Mind      54776 2002-02-22
## # ... with 646 more rows
…
